8.192000000000000000e+03,5.000000000000000000e+00,7.181591987609863281e-01,3.627315712000000076e+03,1.648571000000000000e+06,2.038000000000000000e+03,3.958200800000000186e+01
8.192000000000000000e+03,5.000000000000000000e+00,6.900174617767333984e-01,3.627315712000000076e+03,1.648571000000000000e+06,2.038000000000000000e+03,3.958200800000000186e+01
4.096000000000000000e+03,5.000000000000000000e+00,1.726916313171386719e+00,4.473782527999999729e+03,9.009564000000000000e+06,1.019000000000000000e+03,2.162376879999999915e+02
4.096000000000000000e+03,1.000000000000000000e+01,3.382953166961669922e+00,1.050198732799999925e+04,1.801912800000000000e+07,1.019000000000000000e+03,4.324672239999999874e+02
2.048000000000000000e+03,5.000000000000000000e+00,1.090888261795043945e+00,1.266049535999999989e+03,9.850659000000000000e+06,5.100000000000000000e+02,2.364198959999999943e+02
2.048000000000000000e+03,1.000000000000000000e+01,1.996281147003173828e+00,2.887874560000000201e+03,1.970131800000000000e+07,5.100000000000000000e+02,4.728357120000000009e+02
2.048000000000000000e+03,1.500000000000000000e+01,3.034305095672607422e+00,4.572864768000000367e+03,2.955197700000000000e+07,5.100000000000000000e+02,7.092515280000000075e+02
2.048000000000000000e+03,2.000000000000000000e+01,4.128799438476562500e+00,7.384899840000000040e+03,3.940263600000000000e+07,5.100000000000000000e+02,9.456673439999999573e+02
2.048000000000000000e+03,2.500000000000000000e+01,5.013178825378417969e+00,1.026010009600000012e+04,4.925329500000000000e+07,5.100000000000000000e+02,1.182083159999999907e+03
2.048000000000000000e+03,3.000000000000000000e+01,5.929729223251342773e+00,1.355309311999999954e+04,5.910395400000000000e+07,5.100000000000000000e+02,1.418498976000000084e+03
1.024000000000000000e+03,5.000000000000000000e+00,7.387814521789550781e-01,8.608842240000000174e+02,1.075717300000000000e+07,2.550000000000000000e+02,2.581741920000000050e+02
1.024000000000000000e+03,1.000000000000000000e+01,1.453802108764648438e+00,2.176464383999999882e+03,2.151434600000000000e+07,2.550000000000000000e+02,5.163463440000000446e+02
1.024000000000000000e+03,1.500000000000000000e+01,2.101723909378051758e+00,2.756933632000000216e+03,3.227151900000000000e+07,2.550000000000000000e+02,7.745184960000000274e+02
1.024000000000000000e+03,2.000000000000000000e+01,2.739562749862670898e+00,3.394184960000000046e+03,4.302869200000000000e+07,2.550000000000000000e+02,1.032690648000000010e+03
1.024000000000000000e+03,2.500000000000000000e+01,3.431409835815429688e+00,4.224361216000000240e+03,5.378586500000000000e+07,2.550000000000000000e+02,1.290862800000000107e+03
1.024000000000000000e+03,3.000000000000000000e+01,4.190263748168945312e+00,5.931002112000000125e+03,6.454303800000000000e+07,2.550000000000000000e+02,1.549034951999999976e+03
1.024000000000000000e+03,3.500000000000000000e+01,4.772868871688842773e+00,7.017771520000000237e+03,7.530021100000000000e+07,2.550000000000000000e+02,1.807207104000000072e+03
1.024000000000000000e+03,4.000000000000000000e+01,5.433444976806640625e+00,9.146576896000000488e+03,8.605738400000000000e+07,2.550000000000000000e+02,2.065379256000000169e+03
1.024000000000000000e+03,4.500000000000000000e+01,6.268432140350341797e+00,1.074655308800000057e+04,9.681455700000000000e+07,2.550000000000000000e+02,2.323551407999999810e+03
1.024000000000000000e+03,5.000000000000000000e+01,6.880251646041870117e+00,1.166689638399999967e+04,1.075717300000000000e+08,2.550000000000000000e+02,2.581723559999999907e+03
1.024000000000000000e+03,5.500000000000000000e+01,8.779053211212158203e+00,1.472746163200000046e+04,1.183289030000000000e+08,2.550000000000000000e+02,2.839895712000000003e+03
1.024000000000000000e+03,6.000000000000000000e+01,8.288444757461547852e+00,1.547486592000000019e+04,1.290860760000000000e+08,2.550000000000000000e+02,3.098067864000000100e+03
